{"page":1,"total_results":319009,"total_pages":15951,"results":[{"vote_count":3886,"id":119450,"video":false,"vote_average":7.3,"title":"Dawn of the Planet of the Apes","popularity":109.158153,"poster_path":"\/qL0w9X1dVT3dnkZg3SrYtPFUHMs.jpg","original_language":"en","original_title":"Dawn of the Planet of the Apes","genre_ids":[878,28,18,53],"backdrop_path":"\/rjUl3pd1LHVOVfG4IGcyA1cId5l.jpg","adult":false,"overview":"A group of scientists in San Francisco struggle to stay alive in the aftermath of a plague that is wiping out humanity, while Caesar tries to maintain dominance over his community of intelligent apes.","release_date":"2014-06-26"},{"vote_count":4199,"id":321612,"video":false,"vote_average":6.8,"title":"Beauty and the Beast","popularity":94.687333,"poster_path":"\/tWqifoYuwLETmmasnGHO7xBjEtt.jpg","original_language":"en","original_title":"Beauty and the Beast","genre_ids":[10751,14,10749],"backdrop_path":"\/6aUWe0GSl69wMTSWWexsorMIvwU.jpg","adult":false,"overview":"A live-action adaptation of Disney's version of the classic 'Beauty and the Beast' tale of a cursed prince and a beautiful young woman who helps him break the spell.","release_date":"2017-03-16"},{"vote_count":834,"id":324852,"video":false,"vote_average":6.2,"title":"Despicable Me 3","popularity":81.353471,"poster_path":"\/5qcUGqWoWhEsoQwNUrtf3y3fcWn.jpg","original_language":"en","original_title":"Despicable Me 3","genre_ids":[878,12,16,35,10751],"backdrop_path":"\/puV2PFq42VQPItaygizgag8jrXa.jpg","adult":false,"overview":"Gru and his wife Lucy must stop former '80s child star Balthazar Bratt from achieving world domination.","release_date":"2017-06-29"},{"vote_count":1553,"id":315635,"video":false,"vote_average":7.4,"title":"Spider-Man: Homecoming","popularity":79.672387,"poster_path":"\/c24sv2weTHPsmDa7jEMN0m2P3RT.jpg","original_language":"en","original_title":"Spider-Man: Homecoming","genre_ids":[28,12,878],"backdrop_path":"\/fn4n6uOYcB6Uh89nbNPoU2w80RV.jpg","adult":false,"overview":"Following the events of Captain America: Civil War, Peter Parker, with the help of his mentor Tony Stark, tries to balance his life as an ordinary high school student in Queens, New York City, with fighting crime as his superhero alter ego Spider-Man as a new threat, the Vulture, emerges.","release_date":"2017-07-05"},{"vote_count":3825,"id":61791,"video":false,"vote_average":7,"title":"Rise of the Planet of the Apes","popularity":78.615817,"poster_path":"\/esqXMJv6PiK7GJVRwd2FA3SZUoW.jpg","original_language":"en","original_title":"Rise of the Planet of the Apes","genre_ids":[53,28,18,878],"backdrop_path":"\/avECxC9c0yAJZ90BMXOU0VY6v66.jpg","adult":false,"overview":"Scientist Will Rodman is determined to find a cure for Alzheimer's, the disease which has slowly consumed his father. Will feels certain he is close to a breakthrough and tests his latest serum on apes, noticing dramatic increases in intelligence and brain activity in the primate subjects – especially Caesar, his pet chimpanzee.","release_date":"2011-08-03"},{"vote_count":447,"id":374720,"video":false,"vote_average":7.5,"title":"Dunkirk","popularity":74.777516,"poster_path":"\/cUqEgoP6kj8ykfNjJx3Tl5zHCcN.jpg","original_language":"en","original_title":"Dunkirk","genre_ids":[28,18,36,53,10752],"backdrop_path":"\/fudEG1VUWuOqleXv6NwCExK0VLy.jpg","adult":false,"overview":"Miraculous evacuation of Allied soldiers from Belgium, Britain, Canada, and France, who were cut off and surrounded by the German army from the beaches and harbor of Dunkirk, France, between May 26 and June 04, 1940, during Battle of France in World War II.","release_date":"2017-07-19"},{"vote_count":511,"id":281338,"video":false,"vote_average":6.6,"title":"War for the Planet of the Apes","popularity":58.935339,"poster_path":"\/2n4x2FRcmMIsHxcucxvWxb0Yry6.jpg","original_language":"en","original_title":"War for the Planet of the Apes","genre_ids":[10752,28,12,18,878,53],"backdrop_path":"\/w4ZYFLJbiqZyvCcGHgvaHD6lTqQ.jpg","adult":false,"overview":"Caesar and his apes are forced into a deadly conflict with an army of humans led by a ruthless Colonel. After the apes suffer unimaginable losses, Caesar wrestles with his darker instincts and begins his own mythic quest to avenge his kind. As the journey finally brings them face to face, Caesar and the Colonel are pitted against each other in an epic battle that will determine the fate of both their species and the future of the planet.","release_date":"2017-07-11"},{"vote_count":8681,"id":118340,"video":false,"vote_average":7.8,"title":"Guardians of the Galaxy","popularity":51.767844,"poster_path":"\/y31QB9kn3XSudA15tV7UWQ9XLuW.jpg","original_language":"en","original_title":"Guardians of the Galaxy","genre_ids":[28,878,12],"backdrop_path":"\/bHarw8xrmQeqf3t8HpuMY7zoK4x.jpg","adult":false,"overview":"Light years from Earth, 26 years after being abducted, Peter Quill finds himself the prime target of a manhunt after discovering an orb wanted by Ronan the Accuser.","release_date":"2014-07-30"},{"vote_count":3849,"id":211672,"video":false,"vote_average":6.4,"title":"Minions","popularity":50.262027,"poster_path":"\/q0R4crx2SehcEEQEkYObktdeFy.jpg","original_language":"en","original_title":"Minions","genre_ids":[10751,16,12,35],"backdrop_path":"\/uX7LXnsC7bZJZjn048UCOwkPXWJ.jpg","adult":false,"overview":"Minions Stuart, Kevin and Bob are recruited by Scarlet Overkill, a super-villain who, alongside her inventor husband Herb, hatches a plot to take over the world.","release_date":"2015-06-17"},{"vote_count":1692,"id":315837,"video":false,"vote_average":5.9,"title":"Ghost in the Shell","popularity":43.071578,"poster_path":"\/myRzRzCxdfUWjkJWgpHHZ1oGkJd.jpg","original_language":"en","original_title":"Ghost in the Shell","genre_ids":[28,80,18,9648,878,53],"backdrop_path":"\/jGPSVArC0GS2VVc0aGAqGTjfFOG.jpg","adult":false,"overview":"In the near future, Major is the first of her kind: a human saved from a terrible crash, then cyber-enhanced to be a perfect soldier devoted to stopping the world's most dangerous criminals.","release_date":"2017-03-29"},{"vote_count":4977,"id":263115,"video":false,"vote_average":7.5,"title":"Logan","popularity":42.213009,"poster_path":"\/gGBu0hKw9BGddG8RkRAMX7B6NDB.jpg","original_language":"en","original_title":"Logan","genre_ids":[28,18,878],"backdrop_path":"\/5pAGnkFYSsFJ99ZxDIYnhQbQFXs.jpg","adult":false,"overview":"In the near future, a weary Logan cares for an ailing Professor X in a hideout on the Mexican border. But Logan's attempts to hide from the world and his legacy are upended when a young mutant arrives, pursued by dark forces.","release_date":"2017-02-28"},{"vote_count":7972,"id":135397,"video":false,"vote_average":6.5,"title":"Jurassic World","popularity":41.183894,"poster_path":"\/jjBgi2r5cRt36xF6iNUEhzscEcb.jpg","original_language":"en","original_title":"Jurassic World","genre_ids":[28,12,878,53],"backdrop_path":"\/dkMD5qlogeRMiEixC4YNPUvax2T.jpg","adult":false,"overview":"Twenty-two years after the events of Jurassic Park, Isla Nublar now features a fully functioning dinosaur theme park, Jurassic World, as originally envisioned by John Hammond.","release_date":"2015-06-09"},{"vote_count":6297,"id":22,"video":false,"vote_average":7.4,"title":"Pirates of the Caribbean: The Curse of the Black Pearl","popularity":41.12366,"poster_path":"\/tkt9xR1kNX5R9rCebASKck44si2.jpg","original_language":"en","original_title":"Pirates of the Caribbean: The Curse of the Black Pearl","genre_ids":[12,14,28],"backdrop_path":"\/8AUQ7YlJJA9C8kWk8P4YNHIcFDE.jpg","adult":false,"overview":"Jack Sparrow, a freewheeling 17th-century pirate who roams the Caribbean Sea, butts heads with a rival pirate bent on pillaging the village of Port Royal. When the governor's daughter is kidnapped, Sparrow decides to help the girl's love save her. But their seafaring mission is hardly simple.","release_date":"2003-07-09"},{"vote_count":8699,"id":76341,"video":false,"vote_average":7.2,"title":"Mad Max: Fury Road","popularity":38.798264,"poster_path":"\/kqjL17yufvn9OVLyXYpvtyrFfak.jpg","original_language":"en","original_title":"Mad Max: Fury Road","genre_ids":[28,12,878,53],"backdrop_path":"\/phszHPFVhPHhMZgo0fWTKBDQsJA.jpg","adult":false,"overview":"An apocalyptic story set in the furthest reaches of our planet, in a stark desert landscape where humanity is broken, and most everyone is crazed fighting for the necessities of life. Within this world exist two rebels on the run who just might be able to restore order. There's Max, a man of action and a man of few words, who seeks peace of mind following the loss of his wife and child in the aftermath of the chaos. And Furiosa, a woman of action and a woman who believes her path to survival may be achieved if she can make it across the desert back to her childhood homeland.","release_date":"2015-05-13"},{"vote_count":4842,"id":245891,"video":false,"vote_average":6.9,"title":"John Wick","popularity":31.250131,"poster_path":"\/5vHssUeVe25bMrof1HyaPyWgaP.jpg","original_language":"en","original_title":"John Wick","genre_ids":[28,53],"backdrop_path":"\/mFb0ygcue4ITixDkdr7wm1Tdarx.jpg","adult":false,"overview":"Ex-hitman John Wick comes out of retirement to track down the gangsters that took everything from him.","release_date":"2014-10-22"},{"vote_count":9792,"id":157336,"video":false,"vote_average":8.1,"title":"Interstellar","popularity":31.180425,"poster_path":"\/nBNZadXqJSdt05SHLqgT0HuC5Gm.jpg","original_language":"en","original_title":"Interstellar","genre_ids":[12,18,878],"backdrop_path":"\/xu9zaAevzQ5nnrsXN6JcahLnG4i.jpg","adult":false,"overview":"Interstellar chronicles the adventures of a group of explorers who make use of a newly discovered wormhole to surpass the limitations on human space travel and conquer the vast distances involved in an interstellar voyage.","release_date":"2014-11-05"},{"vote_count":2454,"id":293167,"video":false,"vote_average":6.1,"title":"Kong: Skull Island","popularity":30.577288,"poster_path":"\/r2517Vz9EhDhj88qwbDVj8DCRZN.jpg","original_language":"en","original_title":"Kong: Skull Island","genre_ids":[28,12,14],"backdrop_path":"\/pGwChWiAY1bdoxL79sXmaFBlYJH.jpg","adult":false,"overview":"Explore the mysterious and dangerous home of the king of the apes as a team of explorers ventures deep inside the treacherous, primordial island.","release_date":"2017-03-08"},{"vote_count":5062,"id":131631,"video":false,"vote_average":6.6,"title":"The Hunger Games: Mockingjay - Part 1","popularity":29.628465,"poster_path":"\/gj282Pniaa78ZJfbaixyLXnXEDI.jpg","original_language":"en","original_title":"The Hunger Games: Mockingjay - Part 1","genre_ids":[878,12,53],"backdrop_path":"\/4PwyB0ErucIANzW24Kori71J6gU.jpg","adult":false,"overview":"Katniss Everdeen reluctantly becomes the symbol of a mass rebellion against the autocratic Capitol.","release_date":"2014-11-18"},{"vote_count":9668,"id":293660,"video":false,"vote_average":7.4,"title":"Deadpool","popularity":27.313448,"poster_path":"\/inVq3FRqcYIRl2la8iZikYYxFNR.jpg","original_language":"en","original_title":"Deadpool","genre_ids":[28,12,35,10749],"backdrop_path":"\/n1y094tVDFATSzkTnFxoGZ1qNsG.jpg","adult":false,"overview":"Based upon Marvel Comics’ most unconventional anti-hero, DEADPOOL tells the origin story of former Special Forces operative turned mercenary Wade Wilson, who after being subjected to a rogue experiment that leaves him with accelerated healing powers, adopts the alter ego Deadpool. Armed with his new abilities and a dark, twisted sense of humor, Deadpool hunts down the man who nearly destroyed his life.","release_date":"2016-02-09"},{"vote_count":29,"id":339692,"video":false,"vote_average":7.4,"title":"Shot Caller","popularity":26.886969,"poster_path":"\/o8o2oq2LxQyXjFO0eWyUwrFO9WL.jpg","original_language":"en","original_title":"Shot Caller","genre_ids":[18,80,53],"backdrop_path":"\/eRJMFHOn5jDmfWWPfTs5RflApgW.jpg","adult":false,"overview":"A newly released prison gangster is forced by the leaders of his gang to orchestrate a major crime with a brutal rival gang on the streets of Southern California.","release_date":"2017-07-13"}]}